• BioPlex
…
Setup

library(BioPlex)

Obtain CORUM complexes

Complete of CORUM complexes:

all <- getCorum(set = "all")

## Using cached version from 2021-02-16 15:31:21

all

## # A tibble: 4,274 x 20
##    ComplexID ComplexName Organism Synonyms `Cell line` `subunits(UniPr…
##        <dbl> <chr>       <chr>    <chr>    <chr>       <chr>           
##  1         1 BCL6-HDAC4… Human    None     None        P41182;P56524   
##  2         2 BCL6-HDAC5… Human    None     None        P41182;Q9UQL6   
##  3         3 BCL6-HDAC7… Human    None     None        P41182;Q8WUI4   
##  4         4 Multisubun… Human    None     None        Q09472;Q92793;Q…
##  5         9 6S-nuclear… Mouse    None     None        P30561;P53762   
##  6        10 Condensin … Human    13S con… None        O95347;Q15003;Q…
##  7        11 BLOC-3 (bi… Human    None     None        Q92902;Q9NQG7   
##  8        12 BLOC-2 (bi… Human    None     None        Q86YV9;Q969F9;Q…
##  9        13 MUS81-CDS1… Human    None     HeLa cells  Q92903;Q96NY9   
## 10        14 BLOC-2 (bi… Mouse    None     None        P59438;Q8BLY7;Q…
## # … with 4,264 more rows, and 14 more variables: `subunits(Entrez IDs)` <chr>,
## #   `Protein complex purification method` <chr>, `GO ID` <chr>, `GO
## #   description` <chr>, `FunCat ID` <chr>, `FunCat description` <chr>,
## #   `subunits(Gene name)` <chr>, `Subunits comment` <chr>, `PubMed ID` <dbl>,
## #   `Complex comment` <chr>, `Disease comment` <chr>, `SWISSPROT
## #   organism` <chr>, `subunits(Gene name syn)` <chr>, `subunits(Protein
## #   name)` <chr>

Core set of complexes:

core <- getCorum(set = "core")

## Using cached version from 2021-02-16 15:31:36

core

## # A tibble: 3,512 x 20
##    ComplexID ComplexName Organism Synonyms `Cell line` `subunits(UniPr…
##        <dbl> <chr>       <chr>    <chr>    <chr>       <chr>           
##  1         1 BCL6-HDAC4… Human    None     None        P41182;P56524   
##  2         2 BCL6-HDAC5… Human    None     None        P41182;Q9UQL6   
##  3         3 BCL6-HDAC7… Human    None     None        P41182;Q8WUI4   
##  4         4 Multisubun… Human    None     None        Q09472;Q92793;Q…
##  5         9 6S-nuclear… Mouse    None     None        P30561;P53762   
##  6        11 BLOC-3 (bi… Human    None     None        Q92902;Q9NQG7   
##  7        12 BLOC-2 (bi… Human    None     None        Q86YV9;Q969F9;Q…
##  8        13 MUS81-CDS1… Human    None     HeLa cells  Q92903;Q96NY9   
##  9        15 NCOR compl… Human    NCOR1 c… HeLa cells  O15379;O60907;O…
## 10        23 BLOC-1 (bi… Human    None     None        O95295;P78537;Q…
## # … with 3,502 more rows, and 14 more variables: `subunits(Entrez IDs)` <chr>,
## #   `Protein complex purification method` <chr>, `GO ID` <chr>, `GO
## #   description` <chr>, `FunCat ID` <chr>, `FunCat description` <chr>,
## #   `subunits(Gene name syn)` <chr>, `Complex comment` <chr>, `Disease
## #   comment` <chr>, `SWISSPROT organism` <chr>, `Subunits comment` <chr>,
## #   `subunits(Gene name)` <chr>, `PubMed ID` <dbl>, `subunits(Protein
## #   name)` <chr>

Complexes with splice variants:

splice <- getCorum(set = "splice")

## Using cached version from 2021-02-16 15:31:55

splice

## # A tibble: 58 x 20
##    ComplexID ComplexName Organism Synonyms `Cell line` `subunits(UniPr…
##        <dbl> <chr>       <chr>    <chr>    <chr>       <chr>           
##  1       761 Apoptosis-… Human    None     None        O00422;Q15287;Q…
##  2       995 Polycomb r… Human    PRC3 co… None        O75530-2;O75530…
##  3       996 Polycomb r… Human    PRC2 co… None        O75530-1;O75530…
##  4      2261 GluR6a-Glu… Mouse    None     COS cells   P39087;P39087-2 
##  5      3569 Angiomotin… Mouse    None     None        P20918;Q8VHG2-2 
##  6      4062 VEGF-A165-… Human    NRP1-VE… None        O14786;P15692-4…
##  7      5696 NRP2-VEGF-… Human    None     None        O60462;P15692-6 
##  8      5697 VEGF-A165-… Human    VEGF165… None        O14786;P15692-4…
##  9      5698 VEGF-A165b… Human    VEGF-A1… None        P15692-8;P17948 
## 10      5701 NRP1-VEGF-… Human    None     None        O14786;P15692-4 
## # … with 48 more rows, and 14 more variables: `subunits(Entrez IDs)` <chr>,
## #   `Protein complex purification method` <chr>, `GO ID` <chr>, `GO
## #   description` <chr>, `FunCat ID` <chr>, `FunCat description` <chr>,
## #   `subunits(Gene name)` <chr>, `Disease comment` <chr>, `Complex
## #   comment` <chr>, `subunits(Gene name syn)` <chr>, `subunits(Protein
## #   name)` <chr>, `PubMed ID` <dbl>, `Subunits comment` <chr>, `SWISSPROT
## #   organism` <chr>
…
